[gd_scene load_steps=3 format=2]

[ext_resource path="res://Stages/CameraBound.gd" type="Script" id=1]
[ext_resource path="res://Environment/InvisibleWall.tscn" type="PackedScene" id=2]

[node name="CameraBound" type="Position2D"]

script = ExtResource( 1 )

[node name="InvisibleWall" parent="." index="0" instance=ExtResource( 2 )]

[node name="InvisibleWall2" parent="." index="1" instance=ExtResource( 2 )]

[node name="InvisibleWall3" parent="." index="2" instance=ExtResource( 2 )]

[node name="InvisibleWall4" parent="." index="3" instance=ExtResource( 2 )]


